Data manipulation and analysis with dplyr
…
You can also group by multiple columns by including both as arguments to the group_by() function. For example, to view the mean Count by both site and species, you could do the following:

trees %>%
    group_by(Site, Species) %>%
    summarize(meanCount = mean(Count))

## Source: local data frame [60 x 3]
## Groups: Site [?]
## 
##           Site                 Species meanCount
##          <chr>                   <chr>     <dbl>
## 1  Fredericton             Acer rubrum      18.6
## 2  Fredericton          Cornus florida      20.2
## 3  Fredericton Liriodendron tulipifera      20.2
## 4  Fredericton           Pinus strobus      16.0
## 5  Fredericton            Quercus alba      19.6
## 6  Fredericton        Tsuga canadensis      23.8
## 7     Kingston             Acer rubrum      22.4
## 8     Kingston          Cornus florida      25.8
## 9     Kingston Liriodendron tulipifera      12.0
## 10    Kingston           Pinus strobus      23.8
## # ... with 50 more rows

Note that the output no longer runs off the screen. This is becuase dplyr has changed the data.frame to a tbl_df. This data structure is very similar to a data frame, and can be used in the same way, but it automatically shows fewer lines, to make the output more readable. If you want to display more lines on the screen, you can pipe the result to the print() function, with the argument n specifying the number of rows to display.

trees %>%
    group_by(Site, Species) %>%
    summarize(meanCount = mean(Count)) %>%
    print(n = 15)

## Source: local data frame [60 x 3]
## Groups: Site [?]
## 
##           Site                 Species meanCount
##          <chr>                   <chr>     <dbl>
## 1  Fredericton             Acer rubrum      18.6
## 2  Fredericton          Cornus florida      20.2
## 3  Fredericton Liriodendron tulipifera      20.2
## 4  Fredericton           Pinus strobus      16.0
## 5  Fredericton            Quercus alba      19.6
## 6  Fredericton        Tsuga canadensis      23.8
## 7     Kingston             Acer rubrum      22.4
## 8     Kingston          Cornus florida      25.8
## 9     Kingston Liriodendron tulipifera      12.0
## 10    Kingston           Pinus strobus      23.8
## 11    Kingston            Quercus alba      18.8
## 12    Kingston        Tsuga canadensis      13.6
## 13     Moncton             Acer rubrum      20.6
## 14     Moncton          Cornus florida      18.0
## 15     Moncton Liriodendron tulipifera      14.6
## # ... with 45 more rows

Once you have grouped your data, you can summarize multiple variables at the same time, even on different variables. For example, we could find the minimum number of trees counted for each species using min(), and also the highest plot number of each group using max().

trees %>%
    group_by(Site, Species) %>%
    summarize(meanCount = mean(Count), minCount = min(Count))

## Source: local data frame [60 x 4]
## Groups: Site [?]
## 
##           Site                 Species meanCount minCount
##          <chr>                   <chr>     <dbl>    <int>
## 1  Fredericton             Acer rubrum      18.6        9
## 2  Fredericton          Cornus florida      20.2        2
## 3  Fredericton Liriodendron tulipifera      20.2       14
## 4  Fredericton           Pinus strobus      16.0        3
## 5  Fredericton            Quercus alba      19.6       14
## 6  Fredericton        Tsuga canadensis      23.8        6
## 7     Kingston             Acer rubrum      22.4       16
## 8     Kingston          Cornus florida      25.8       20
## 9     Kingston Liriodendron tulipifera      12.0        2
## 10    Kingston           Pinus strobus      23.8        9
## # ... with 50 more rows
…
